Lab 5
…
3. Most Dangerous vehicles by state

danger<- fatal %>%
  group_by(STATE, MAKE) %>%
  na.omit() %>%
  summarise(n = n()) %>%
  group_by(STATE) %>%
  filter(n == max(n))

## `summarise()` regrouping output by 'STATE' (override with `.groups` argument)

danger

## # A tibble: 54 x 3
## # Groups:   STATE [51]
##    STATE                MAKE          n
##    <chr>                <chr>     <int>
##  1 Alabama              Ford        138
##  2 Alaska               Ford          9
##  3 Arizona              Chevrolet    88
##  4 Arkansas             Chevrolet    88
##  5 California           Toyota      351
##  6 Colorado             Ford         63
##  7 Colorado             Honda        63
##  8 Connecticut          Honda        28
##  9 Delaware             Honda        12
## 10 District of Columbia Honda         5
## # ... with 44 more rows
…
